EESchema Schematic File Version 4
EELAYER 26 0
EELAYER END
$Descr A4 11693 8268
encoding utf-8
Sheet 1 1
Title ""
Date ""
Rev ""
Comp ""
Comment1 ""
Comment2 ""
Comment3 ""
Comment4 ""
$EndDescr
$Comp
L Oscillator:MAX7375AXR105 U?
U 1 1 5C596BE6
P 2950 2550
F 0 "U?" H 2720 2596 50  0000 R CNN
F 1 "MAX7375AXR105" H 2720 2505 50  0000 R CNN
F 2 "Package_TO_SOT_SMD:SOT-323_SC-70" H 4050 2200 50  0001 C CNN
F 3 "https://datasheets.maximintegrated.com/en/ds/MAX7375.pdf" H 2850 2550 50  0001 C CNN
	1    2950 2550
	1    0    0    -1  
$EndComp
$Comp
L Device:Battery_Cell BT?
U 1 1 5C596D0B
P 1450 2600
F 0 "BT?" H 1568 2696 50  0000 L CNN
F 1 "Battery_Cell" H 1568 2605 50  0000 L CNN
F 2 "" V 1450 2660 50  0001 C CNN
F 3 "~" V 1450 2660 50  0001 C CNN
	1    1450 2600
	1    0    0    -1  
$EndComp
Wire Wire Line
	1450 2400 1450 2050
Wire Wire Line
	1450 2050 2950 2050
Wire Wire Line
	2950 2050 2950 2250
Wire Wire Line
	2950 2850 2950 3050
Wire Wire Line
	2950 3050 1450 3050
Wire Wire Line
	1450 3050 1450 2700
$Comp
L 74HC164:74HC164 U?
U 1 1 5C59FE68
P 4000 2000
F 0 "U?" H 4100 2478 50  0000 C CNN
F 1 "74HC164" H 4100 2387 50  0000 C CNN
F 2 "" H 4000 2000 50  0001 C CNN
F 3 "" H 4000 2000 50  0001 C CNN
	1    4000 2000
	1    0    0    -1  
$EndComp
$Comp
L 74HC164:74HC164 U?
U 1 1 5C59FF77
P 4000 3400
F 0 "U?" H 4100 3878 50  0000 C CNN
F 1 "74HC164" H 4100 3787 50  0000 C CNN
F 2 "" H 4000 3400 50  0001 C CNN
F 3 "" H 4000 3400 50  0001 C CNN
	1    4000 3400
	1    0    0    -1  
$EndComp
$Comp
L 74HC164:74HC164 U?
U 1 1 5C59FFFE
P 4000 4800
F 0 "U?" H 4100 5278 50  0000 C CNN
F 1 "74HC164" H 4100 5187 50  0000 C CNN
F 2 "" H 4000 4800 50  0001 C CNN
F 3 "" H 4000 4800 50  0001 C CNN
	1    4000 4800
	1    0    0    -1  
$EndComp
$Comp
L 74HC164:74HC164 U?
U 1 1 5C5A00A1
P 4000 6200
F 0 "U?" H 4100 6678 50  0000 C CNN
F 1 "74HC164" H 4100 6587 50  0000 C CNN
F 2 "" H 4000 6200 50  0001 C CNN
F 3 "" H 4000 6200 50  0001 C CNN
	1    4000 6200
	1    0    0    -1  
$EndComp
Wire Wire Line
	3750 2550 3500 2550
Wire Wire Line
	3750 3950 3500 3950
Wire Wire Line
	3500 3950 3500 2550
Connection ~ 3500 2550
Wire Wire Line
	3500 2550 3350 2550
Wire Wire Line
	3500 3950 3500 5350
Wire Wire Line
	3500 5350 3750 5350
Connection ~ 3500 3950
Wire Wire Line
	3500 5350 3500 6750
Wire Wire Line
	3500 6750 3750 6750
Connection ~ 3500 5350
Wire Wire Line
	3750 6650 3600 6650
Wire Wire Line
	3600 6650 3600 5900
Wire Wire Line
	3600 2050 2950 2050
Connection ~ 2950 2050
Wire Wire Line
	4100 5900 3600 5900
Connection ~ 3600 5900
Wire Wire Line
	3600 5900 3600 5250
Wire Wire Line
	3750 5250 3600 5250
Connection ~ 3600 5250
Wire Wire Line
	3600 5250 3600 4500
Wire Wire Line
	4100 4500 3600 4500
Connection ~ 3600 4500
Wire Wire Line
	3600 4500 3600 3850
Wire Wire Line
	4100 3100 3600 3100
Connection ~ 3600 3100
Wire Wire Line
	3600 3100 3600 2450
Wire Wire Line
	4100 1700 2950 1700
Wire Wire Line
	2950 1700 2950 2050
Wire Wire Line
	3750 3850 3600 3850
Connection ~ 3600 3850
Wire Wire Line
	3600 3850 3600 3100
Wire Wire Line
	3750 2450 3600 2450
Connection ~ 3600 2450
Wire Wire Line
	3600 2450 3600 2050
Wire Wire Line
	4100 2800 3650 2800
Wire Wire Line
	3650 2800 3650 4200
Wire Wire Line
	3650 7000 4100 7000
Wire Wire Line
	4100 5600 3650 5600
Connection ~ 3650 5600
Wire Wire Line
	3650 5600 3650 7000
Wire Wire Line
	4100 4200 3650 4200
Connection ~ 3650 4200
Wire Wire Line
	3650 4200 3650 5600
Wire Wire Line
	3650 2800 3200 2800
Wire Wire Line
	3200 2800 3200 3050
Wire Wire Line
	3200 3050 2950 3050
Connection ~ 3650 2800
Connection ~ 2950 3050
Wire Wire Line
	4950 6600 4950 1250
Wire Wire Line
	4950 1250 3750 1250
Wire Wire Line
	3750 1250 3750 1900
Connection ~ 3750 1900
Wire Wire Line
	3750 1900 3750 2000
Wire Wire Line
	4450 2600 4450 2850
Wire Wire Line
	4450 2850 3750 2850
Wire Wire Line
	3750 2850 3750 3300
Connection ~ 3750 3300
Wire Wire Line
	3750 3300 3750 3400
Wire Wire Line
	4450 4000 4450 4250
Wire Wire Line
	4450 4250 3750 4250
Wire Wire Line
	3750 4250 3750 4700
Connection ~ 3750 4700
Wire Wire Line
	3750 4700 3750 4800
Wire Wire Line
	4450 5400 4450 5650
Wire Wire Line
	4450 5650 3750 5650
Wire Wire Line
	3750 5650 3750 6100
Connection ~ 3750 6100
Wire Wire Line
	3750 6100 3750 6200
Wire Wire Line
	4950 6600 4450 6600
$EndSCHEMATC
